{
    "current_page": 1,
    "data": [
        {
            "id": 1,
            "title": "Quaerat et possimus perferendis.",
            "body": "Sunt nihil sed cum voluptas inventore accusantium labore. Quibusdam voluptate maxime aspernatur enim libero praesentium ad. Excepturi est dolore nobis odit doloribus. Eligendi molestiae id aliquid ex laborum assumenda. Et et reiciendis sed et velit dolores ipsam animi.",
            "created_at": "2021-12-02T02:22:33.000000Z",
            "updated_at": "2021-12-02T02:22:33.000000Z"
        },
        {
            "id": 2,
            "title": "Et officia ut minima aut deleniti.",
            "body": "Eum quia illum eius quia sit laudantium provident. Dolor non tempore dolores blanditiis odit. Sequi eligendi minus sit atque nobis distinctio quo. Et ut dolor qui suscipit omnis architecto.",
            "created_at": "2021-12-02T02:22:33.000000Z",
            "updated_at": "2021-12-02T02:22:33.000000Z"
        },
        {
            "id": 3,
            "title": "Veniam autem in sed voluptas sunt omnis cupiditate velit.",
            "body": "Sint distinctio laborum ab omnis. Ut est quaerat ut voluptatem quis exercitationem. Officia occaecati earum modi amet rerum unde quidem.",
            "created_at": "2021-12-02T02:22:33.000000Z",
            "updated_at": "2021-12-02T02:22:33.000000Z"
        },
        {
            "id": 4,
            "title": "Quia velit aspernatur voluptas consequatur.",
            "body": "Doloribus a laudantium aperiam saepe sit omnis voluptas et. Harum velit id debitis ducimus est. Officiis ut illo modi ipsum voluptas inventore sit. Veniam est rem voluptates facilis iusto. Fugit facilis qui minima sunt deleniti repudiandae.",
            "created_at": "2021-12-02T02:22:33.000000Z",
            "updated_at": "2021-12-02T02:22:33.000000Z"
        },
        {
            "id": 5,
            "title": "Ut amet nihil omnis dolores earum temporibus quam.",
            "body": "Corrupti ut est qui quo reprehenderit officiis. Voluptates sit et est consequatur quia et. Praesentium eum distinctio dolores saepe ea blanditiis repellat. Magnam ut sint rem qui non ullam.",
            "created_at": "2021-12-02T02:22:33.000000Z",
            "updated_at": "2021-12-02T02:22:33.000000Z"
        },
        {
            "id": 6,
            "title": "Expedita suscipit nostrum aut voluptatem id nisi.",
            "body": "Totam ea quisquam ab aliquam. Iusto dignissimos voluptatibus rerum voluptas numquam explicabo. Earum voluptatem nihil modi vitae vel amet maiores.",
            "created_at": "2021-12-02T02:22:33.000000Z",
            "updated_at": "2021-12-02T02:22:33.000000Z"
        },
        {
            "id": 7,
            "title": "Cumque quo repellat rerum tenetur magnam impedit ab.",
            "body": "Ut porro perspiciatis totam harum autem libero perferendis perspiciatis. Dignissimos nulla nulla quo veritatis soluta voluptate molestiae eaque. Aut inventore sapiente ducimus fuga beatae dolorem nisi et. Dolor facilis nam tenetur quo natus a veritatis.",
            "created_at": "2021-12-02T02:22:33.000000Z",
            "updated_at": "2021-12-02T02:22:33.000000Z"
        },
        {
            "id": 8,
            "title": "Ab magni excepturi odio id aut laboriosam sequi nisi.",
            "body": "Non praesentium delectus impedit excepturi asperiores distinctio. Sed dolor qui quia occaecati neque. Impedit tempore ipsum similique iste eos dolores aut unde.",
            "created_at": "2021-12-02T02:22:34.000000Z",
            "updated_at": "2021-12-02T02:22:34.000000Z"
        },
        {
            "id": 9,
            "title": "Adipisci maiores debitis voluptatem cupiditate quam.",
            "body": "Neque ut maiores mollitia excepturi non ipsum in. Ullam error culpa non quos eos vero necessitatibus. Quo dolor pariatur et saepe sed assumenda quisquam.",
            "created_at": "2021-12-02T02:22:34.000000Z",
            "updated_at": "2021-12-02T02:22:34.000000Z"
        },
        {
            "id": 10,
            "title": "Perferendis nemo doloribus ratione voluptatem.",
            "body": "Voluptas deleniti temporibus sequi ad. Non occaecati officia hic non consequatur pariatur. Sit sint et nihil assumenda corporis assumenda. Aliquid excepturi porro cum praesentium cum.",
            "created_at": "2021-12-02T02:22:34.000000Z",
            "updated_at": "2021-12-02T02:22:34.000000Z"
        },
        {
            "id": 11,
            "title": "Quo expedita doloribus qui temporibus.",
            "body": "Est ullam aut quia deleniti pariatur non. Consequatur qui sint corporis ut debitis. Qui temporibus ad voluptatem sint quas ut voluptas.",
            "created_at": "2021-12-02T02:22:34.000000Z",
            "updated_at": "2021-12-02T02:22:34.000000Z"
        },
        {
            "id": 12,
            "title": "Voluptatem at pariatur excepturi doloribus est dicta tempore ullam.",
            "body": "Delectus cupiditate ut expedita iste placeat minus. Temporibus vitae ex quibusdam dolorem esse quam officia. Neque itaque reiciendis facere quo. Quia pariatur eveniet tempora perspiciatis voluptatum. Fugiat laudantium assumenda sed voluptatem.",
            "created_at": "2021-12-02T02:22:34.000000Z",
            "updated_at": "2021-12-02T02:22:34.000000Z"
        },
        {
            "id": 13,
            "title": "Dolorem nam omnis autem.",
            "body": "Nostrum ipsam voluptas id dolores velit perspiciatis. Nisi et at dignissimos vel. Inventore debitis necessitatibus qui culpa aspernatur molestiae.",
            "created_at": "2021-12-02T02:22:34.000000Z",
            "updated_at": "2021-12-02T02:22:34.000000Z"
        },
        {
            "id": 14,
            "title": "Sed facilis tempora aut accusamus ut illo ratione aspernatur.",
            "body": "Est neque sint quis. Vero nostrum eum qui aliquam quidem. Aut accusantium asperiores fuga veniam nemo.",
            "created_at": "2021-12-02T02:22:34.000000Z",
            "updated_at": "2021-12-02T02:22:34.000000Z"
        },
        {
            "id": 15,
            "title": "Voluptas eius magnam laborum aut rerum dolorem dolorem ut.",
            "body": "Non error sint eum quae neque occaecati provident. Libero sint autem id tempora magnam id. Laborum nobis adipisci voluptatibus veritatis ea mollitia. Nemo doloremque perspiciatis aperiam excepturi.",
            "created_at": "2021-12-02T02:22:34.000000Z",
            "updated_at": "2021-12-02T02:22:34.000000Z"
        }
    ],
    "first_page_url": "http://laravel-datatables-demo.test/api/articles?page=1",
    "from": 1,
    "last_page": 4,
    "last_page_url": "http://laravel-datatables-demo.test/api/articles?page=4",
    "links": [
        {
            "url": null,
            "label": "&laquo; Previous",
            "active": false
        },
        {
            "url": "http://laravel-datatables-demo.test/api/articles?page=1",
            "label": "1",
            "active": true
        },
        {
            "url": "http://laravel-datatables-demo.test/api/articles?page=2",
            "label": "2",
            "active": false
        },
        {
            "url": "http://laravel-datatables-demo.test/api/articles?page=3",
            "label": "3",
            "active": false
        },
        {
            "url": "http://laravel-datatables-demo.test/api/articles?page=4",
            "label": "4",
            "active": false
        },
        {
            "url": "http://laravel-datatables-demo.test/api/articles?page=2",
            "label": "Next &raquo;",
            "active": false
        }
    ],
    "next_page_url": "http://laravel-datatables-demo.test/api/articles?page=2",
    "path": "http://laravel-datatables-demo.test/api/articles",
    "per_page": 15,
    "prev_page_url": null,
    "to": 15,
    "total": 50
}
